…
### 1.10 

You are getting two different errors because of how R searches through the working space. When you type search(), R will list in the console the order in which the search is conducted. It will start with .GlobalEnv, then the package palmerpenguins, then a bunch of other packages.

When you type table(year), R wants to use the function table & the object year. R searches through the global environment first, and then various other packages. But since "year" does not show up in the global environment, it is not found. You must subset the package "palmerpenguins" to find the year- and thus the command `table(penguins$year)` does what we intend it to do.

### 1.11

Extracting even numbered rows: `penguins |> slice(seq(from = 2, to = 334, by = 2))` to generate the following output:

```         
# A tibble: 167 × 8
   species island    bill_length_mm bill_depth_mm flipper_length_mm body_mass_g sex     year
   <fct>   <fct>              <dbl>         <dbl>             <int>       <int> <fct>  <int>
 1 Adelie  Torgersen           39.5          17.4               186        3800 female  2007
 2 Adelie  Torgersen           NA            NA                  NA          NA NA      2007
 3 Adelie  Torgersen           39.3          20.6               190        3650 male    2007
 4 Adelie  Torgersen           39.2          19.6               195        4675 male    2007
 5 Adelie  Torgersen           42            20.2               190        4250 NA      2007
 6 Adelie  Torgersen           37.8          17.3               180        3700 NA      2007
 7 Adelie  Torgersen           38.6          21.2               191        3800 male    2007
 8 Adelie  Torgersen           36.6          17.8               185        3700 female  2007
 9 Adelie  Torgersen           42.5          20.7               197        4500 male    2007
10 Adelie  Torgersen           46            21.5               194        4200 male    2007
# ℹ 157 more rows
```

Extracting every three rows: `penguins |> slice(seq(from = 3, to = 334, by = 3))` to generate the following output:

```         
# A tibble: 111 × 8
   species island    bill_length_mm bill_depth_mm flipper_length_mm body_mass_g sex     year
   <fct>   <fct>              <dbl>         <dbl>             <int>       <int> <fct>  <int>
 1 Adelie  Torgersen           40.3          18                 195        3250 female  2007
 2 Adelie  Torgersen           39.3          20.6               190        3650 male    2007
 3 Adelie  Torgersen           34.1          18.1               193        3475 NA      2007
 4 Adelie  Torgersen           37.8          17.3               180        3700 NA      2007
 5 Adelie  Torgersen           34.6          21.1               198        4400 male    2007
 6 Adelie  Torgersen           42.5          20.7               197        4500 male    2007
 7 Adelie  Biscoe              37.8          18.3               174        3400 female  2007
 8 Adelie  Biscoe              38.2          18.1               185        3950 male    2007
 9 Adelie  Biscoe              40.6          18.6               183        3550 male    2007
10 Adelie  Biscoe              40.5          18.9               180        3950 male    2007
# ℹ 101 more rows
```

### 1.12

To filter penguins that are of the Gentoo species, on the Biscoe island, and whose body mass weighs between 5000 and 5500 g:

`penguins |> filter(species == "Gentoo" & island == "Biscoe" & body_mass_g <= 5500 & body_mass_g >= 5000)`

Output:

```         
# A tibble: 39 × 8
   species island bill_length_mm bill_depth_mm flipper_length_mm body_mass_g sex     year
   <fct>   <fct>           <dbl>         <dbl>             <int>       <int> <fct>  <int>
 1 Gentoo  Biscoe           47.6          14.5               215        5400 male    2007
 2 Gentoo  Biscoe           46.7          15.3               219        5200 male    2007
 3 Gentoo  Biscoe           46.8          15.4               215        5150 male    2007
 4 Gentoo  Biscoe           48.7          15.1               222        5350 male    2007
 5 Gentoo  Biscoe           45.1          14.5               215        5000 female  2007
 6 Gentoo  Biscoe           46.3          15.8               215        5050 male    2007
 7 Gentoo  Biscoe           42.9          13.1               215        5000 female  2007
 8 Gentoo  Biscoe           46.1          15.1               215        5100 male    2007
 9 Gentoo  Biscoe           47.3          15.3               222        5250 male    2007
10 Gentoo  Biscoe           45.1          14.5               207        5050 female  2007
# ℹ 29 more rows
```
