Week 12 Homework
…
bikes |> 
  group_by(year, month) |> 
  summarize(rides = mean(rides, na.rm = TRUE))

`summarise()` has grouped output by 'year'. You can override using the
`.groups` argument.

# A tibble: 23 × 3
# Groups:   year [2]
    year month rides
   <int> <fct> <dbl>
 1  2011 Apr   2418.
 2  2011 Aug   4316 
 3  2011 Dec   2571.
 4  2011 Feb   1497.
 5  2011 Jan   1166.
 6  2011 Jun   3817.
 7  2011 Mar   1655.
 8  2011 May   3394.
 9  2011 Nov   2920.
10  2011 Oct   3231.
# ℹ 13 more rows
…
